[
    {
      "_id"          : "5e6bf231992d1b176ff18e33",
      "user_id"      : "5e6e8e074763f31a1ad53674",
      "city"         : "Lugo",
      "title"        : "Ruta diaria casa-cole-trabajo",
      "description"  : "La ruta la hago desde mi casa, pasando por el cole de los niños en la calle XXXXXXXXX",
      "transport": "moto",
      "seats": 1,
      "departure": "08:04",
      "from": {
              "type": "Point",
              "coordinates": [
                -8.72264,
                42.23282
              ]
          },
      "to": {
            "type": "Point",
            "coordinates": [
                -8.73,
                42.25
            ]
        }
    },
    {
      "_id"          : "5e6959c1b244f42c599d014d",
      "user_id"      : "Ee6e8e074763f31a1ad53675",
      "city"         : "Madrid",
      "title"        : "SS Reyes - Alcobendas",
      "description"  : "Salgo a eso de las 8:16 de mi casa, a veces hay atasco, llego a mi trabajo a las 08:50",
      "transport": "coche",
      "seats": 2,
      "departure": "08:17",
      "from": {
            "type"       : "Point",
            "coordinates": [
                -3.631718 ,
                40.523947
            ]
          },
      "to": {
        "type"       : "Point",
        "coordinates": [
          -3.6189,
          40.56
        ]
      }
    },
    {
        "_id"          : "5e6959c1b244f42c589d014d",
        "user_id"      : "Ee6e8e074763f31a1ad53675",
        "city"         : "Madrid",
        "title"        : "Zona Pza Castilla",
        "description"  : "",
        "transport": "moto",
        "seats": 1,
        "departure": "16:10",
        "from": {
                "type"       : "Point",
                "coordinates": [
                    -3.688451,
                    40.458866
                ]
        },
        "to": {
                "type"       : "Point",
                "coordinates": [
                    -3.684644,
                    40.444293
                ]
        }
    },
    {
        "_id"          : "5e6959c19244f424589d014d",
        "user_id"      : "Ee6e8e074763f31a1ad53675",
        "city"         : "Salamanca",
        "title"        : "Salamanca con encanto",
        "description"  : "Este camino lo hacen unos amigos que conozco",
        "transport": "coche",
        "seats": 4,
        "departure": "07:41",
        "from": {
                "type"       : "Point",
                "coordinates": [
                    -5.690028,
                    40.963191
                ]
        },
        "to": {
                "type"       : "Point",
                "coordinates": [
                    -5.670380,
                    40.975560 
                ]
        }
    },
    {
        "_id"          : "7e6959c1924af424589d014d",
        "user_id"      : "5e6e8e074763f31a1ad53674",
        "city"         : "Cádiz",
        "title"        : "De casa al chiringuito y vuelta",
        "description"  : "",
        "transport": "bicicleta",
        "seats": 1,
        "departure": "21:13",
        "from": {
                "type"       : "Point",
                "coordinates": [
                    -6.291478,
                    36.530764
                ]
        },
        "to": {
                "type"       : "Point",
                "coordinates": [
                    -6.290239,
                    36.525654
                ]
        }
    }
]